<?xml version="1.0" encoding="UTF-8" standalone="no"?>
<!-- Created with Inkscape (http://www.inkscape.org/) -->

<svg
   xmlns:dc="http://purl.org/dc/elements/1.1/"
   xmlns:cc="http://creativecommons.org/ns#"
   xmlns:rdf="http://www.w3.org/1999/02/22-rdf-syntax-ns#"
   xmlns:svg="http://www.w3.org/2000/svg"
   xmlns="http://www.w3.org/2000/svg"
   xmlns:sodipodi="http://sodipodi.sourceforge.net/DTD/sodipodi-0.dtd"
   xmlns:inkscape="http://www.inkscape.org/namespaces/inkscape"
   width="83.113319mm"
   height="57.782024mm"
   viewBox="0 0 83.113319 57.782023"
   version="1.1"
   id="svg8"
   inkscape:version="0.92.3 (2405546, 2018-03-11)"
   sodipodi:docname="color-domino-policy2.svg"
   inkscape:export-filename="/home/guillaume/Documents/enseignement/decision-mu/resources/color-domino.png"
   inkscape:export-xdpi="96"
   inkscape:export-ydpi="96">
  <defs
     id="defs2">
    <marker
       inkscape:stockid="Arrow2Mend"
       orient="auto"
       refY="0"
       refX="0"
       id="Arrow2Mend"
       style="overflow:visible"
       inkscape:isstock="true">
      <path
         inkscape:connector-curvature="0"
         id="path1131"
         style="fill:#d61b1b;fill-opacity:1;fill-rule:evenodd;stroke:#d61b1b;stroke-width:0.625;stroke-linejoin:round;stroke-opacity:1"
         d="M 8.7185878,4.0337352 -2.2072895,0.01601326 8.7185884,-4.0017078 c -1.7454984,2.3720609 -1.7354408,5.6174519 -6e-7,8.035443 z"
         transform="scale(-0.6)" />
    </marker>
  </defs>
  <sodipodi:namedview
     id="base"
     pagecolor="#ffffff"
     bordercolor="#666666"
     borderopacity="1.0"
     inkscape:pageopacity="0.0"
     inkscape:pageshadow="2"
     inkscape:zoom="3.959798"
     inkscape:cx="155.27405"
     inkscape:cy="107.14809"
     inkscape:document-units="mm"
     inkscape:current-layer="layer1"
     showgrid="false"
     inkscape:window-width="1920"
     inkscape:window-height="1043"
     inkscape:window-x="1600"
     inkscape:window-y="0"
     inkscape:window-maximized="1"
     fit-margin-top="0"
     fit-margin-left="0"
     fit-margin-right="0"
     fit-margin-bottom="0" />
  <metadata
     id="metadata5">
    <rdf:RDF>
      <cc:Work
         rdf:about="">
        <dc:format>image/svg+xml</dc:format>
        <dc:type
           rdf:resource="http://purl.org/dc/dcmitype/StillImage" />
        <dc:title></dc:title>
      </cc:Work>
    </rdf:RDF>
  </metadata>
  <g
     inkscape:label="Calque 1"
     inkscape:groupmode="layer"
     id="layer1"
     transform="translate(-4.6988559,-45.26975)">
    <g
       id="g1823"
       transform="translate(0,0.52916663)">
      <g
         transform="translate(0,34.925016)"
         id="g922">
        <rect
           style="opacity:1;fill:none;fill-opacity:1;stroke:#626262;stroke-width:0.5;stroke-linecap:round;stroke-linejoin:bevel;stroke-miterlimit:4;stroke-dasharray:none;stroke-dashoffset:0;stroke-opacity:1"
           id="rect815"
           width="5"
           height="5"
           x="12.544597"
           y="51.290745" />
        <circle
           style="opacity:1;fill:#d22f00;fill-opacity:1;stroke:none;stroke-width:0.58585626;stroke-linecap:round;stroke-linejoin:bevel;stroke-miterlimit:4;stroke-dasharray:none;stroke-dashoffset:0;stroke-opacity:1"
           id="path840"
           cx="15.044597"
           cy="53.790745"
           r="1.6" />
      </g>
      <text
         xml:space="preserve"
         style="font-style:normal;font-variant:normal;font-weight:normal;font-stretch:normal;font-size:3.52777767px;line-height:1.25;font-family:Uroob;-inkscape-font-specification:Uroob;letter-spacing:0px;word-spacing:0px;fill:#000000;fill-opacity:1;stroke:none;stroke-width:0.26458332"
         x="-51.215683"
         y="73.528084"
         id="text888"
         transform="rotate(-38.662186)"><tspan
           sodipodi:role="line"
           id="tspan886"
           x="-51.215683"
           y="73.528084"
           style="font-style:normal;font-variant:normal;font-weight:normal;font-stretch:normal;font-family:Uroob;-inkscape-font-specification:Uroob;stroke-width:0.26458332">Initial State</tspan></text>
    </g>
    <g
       id="g1816"
       transform="translate(0,0.52916663)">
      <g
         transform="translate(0,33.904004)"
         id="g918">
        <rect
           style="opacity:1;fill:none;fill-opacity:1;stroke:#626262;stroke-width:0.5;stroke-linecap:round;stroke-linejoin:bevel;stroke-miterlimit:4;stroke-dasharray:none;stroke-dashoffset:0;stroke-opacity:1"
           id="rect815-7"
           width="5"
           height="5"
           x="75.646576"
           y="52.311756" />
        <circle
           style="opacity:1;fill:#003cd2;fill-opacity:1;stroke:none;stroke-width:0.58585626;stroke-linecap:round;stroke-linejoin:bevel;stroke-miterlimit:4;stroke-dasharray:none;stroke-dashoffset:0;stroke-opacity:1"
           id="path840-5"
           cx="78.146576"
           cy="54.811756"
           r="1.6" />
      </g>
      <text
         xml:space="preserve"
         style="font-style:normal;font-variant:normal;font-weight:normal;font-stretch:normal;font-size:3.52777767px;line-height:1.25;font-family:Uroob;-inkscape-font-specification:Uroob;letter-spacing:0px;word-spacing:0px;fill:#000000;fill-opacity:1;stroke:none;stroke-width:0.26458332"
         x="1.002068"
         y="124.68285"
         id="text888-9"
         transform="rotate(-38.662186)"><tspan
           sodipodi:role="line"
           id="tspan886-2"
           x="1.002068"
           y="124.68285"
           style="font-style:normal;font-variant:normal;font-weight:normal;font-stretch:normal;font-family:Uroob;-inkscape-font-specification:Uroob;stroke-width:0.26458332">Goal State</tspan></text>
    </g>
    <text
       xml:space="preserve"
       style="font-style:normal;font-variant:normal;font-weight:normal;font-stretch:normal;font-size:3.52777767px;line-height:1.25;font-family:Uroob;-inkscape-font-specification:Uroob;letter-spacing:0px;word-spacing:0px;fill:#000000;fill-opacity:1;stroke:none;stroke-width:0.26458332"
       x="9.5607977"
       y="48.594574"
       id="text928-9"><tspan
         sodipodi:role="line"
         id="tspan926-3"
         x="9.5607977"
         y="48.594574"
         style="font-style:normal;font-variant:normal;font-weight:normal;font-stretch:normal;font-family:Uroob;-inkscape-font-specification:Uroob;stroke-width:0.26458332">An Action</tspan></text>
    <g
       id="g1176"
       transform="matrix(-1,0,0,1,30.469885,-36.45582)">
      <rect
         y="92.357536"
         x="10.612841"
         height="5"
         width="5"
         id="rect815-0-4-7"
         style="opacity:1;fill:none;fill-opacity:1;stroke:#626262;stroke-width:0.5;stroke-linecap:round;stroke-linejoin:bevel;stroke-miterlimit:4;stroke-dasharray:none;stroke-dashoffset:0;stroke-opacity:1" />
      <circle
         r="1.6"
         cy="94.857536"
         cx="13.11284"
         id="path840-1-2-2"
         style="opacity:1;fill:#ffda3b;fill-opacity:1;stroke:none;stroke-width:0.58585626;stroke-linecap:round;stroke-linejoin:bevel;stroke-miterlimit:4;stroke-dasharray:none;stroke-dashoffset:0;stroke-opacity:1" />
      <g
         id="g964"
         transform="translate(0,-0.85881042)">
        <rect
           style="opacity:1;fill:none;fill-opacity:1;stroke:#626262;stroke-width:0.5;stroke-linecap:round;stroke-linejoin:bevel;stroke-miterlimit:4;stroke-dasharray:none;stroke-dashoffset:0;stroke-opacity:1"
           id="rect815-0-6-0-7"
           width="5"
           height="5"
           x="2.6244578"
           y="85.716347" />
        <circle
           style="opacity:1;fill:#a000d2;fill-opacity:1;stroke:none;stroke-width:0.5;stroke-linecap:round;stroke-linejoin:bevel;stroke-miterlimit:4;stroke-dasharray:none;stroke-dashoffset:0;stroke-opacity:1"
           id="path840-1-3-5-0"
           cx="5.1244574"
           cy="88.216347"
           r="1.6" />
        <rect
           style="opacity:1;fill:none;fill-opacity:1;stroke:#626262;stroke-width:0.5;stroke-linecap:round;stroke-linejoin:bevel;stroke-miterlimit:4;stroke-dasharray:none;stroke-dashoffset:0;stroke-opacity:1"
           id="rect815-0-6-0-7-3"
           width="5"
           height="5"
           x="2.6244578"
           y="90.716347" />
        <circle
           style="opacity:1;fill:#d22f00;fill-opacity:1;stroke:none;stroke-width:0.5;stroke-linecap:round;stroke-linejoin:bevel;stroke-miterlimit:4;stroke-dasharray:none;stroke-dashoffset:0;stroke-opacity:1"
           id="path840-1-3-5-0-6"
           cx="5.1244578"
           cy="93.216347"
           r="1.6" />
        <rect
           style="opacity:1;fill:none;fill-opacity:1;stroke:#626262;stroke-width:0.5;stroke-linecap:round;stroke-linejoin:bevel;stroke-miterlimit:4;stroke-dasharray:none;stroke-dashoffset:0;stroke-opacity:1"
           id="rect815-0-6-0-7-7"
           width="5"
           height="5"
           x="2.6244578"
           y="95.716347" />
        <circle
           style="opacity:1;fill:#00d25a;fill-opacity:1;stroke:none;stroke-width:0.5;stroke-linecap:round;stroke-linejoin:bevel;stroke-miterlimit:4;stroke-dasharray:none;stroke-dashoffset:0;stroke-opacity:1"
           id="path840-1-3-5-0-5"
           cx="5.1244578"
           cy="98.216347"
           r="1.6" />
        <rect
           style="opacity:1;fill:none;fill-opacity:1;stroke:#626262;stroke-width:0.5;stroke-linecap:round;stroke-linejoin:bevel;stroke-miterlimit:4;stroke-dasharray:none;stroke-dashoffset:0;stroke-opacity:1"
           id="rect815-0-6-0-7-35"
           width="5"
           height="5"
           x="2.6244578"
           y="100.71635" />
        <circle
           style="opacity:1;fill:#ffda3b;fill-opacity:1;stroke:none;stroke-width:0.5;stroke-linecap:round;stroke-linejoin:bevel;stroke-miterlimit:4;stroke-dasharray:none;stroke-dashoffset:0;stroke-opacity:1"
           id="path840-1-3-5-0-62"
           cx="5.1244578"
           cy="103.21635"
           r="1.6" />
      </g>
    </g>
    <path
       style="fill:none;stroke:#000000;stroke-width:0.26458332px;stroke-linecap:butt;stroke-linejoin:miter;stroke-opacity:1"
       d="m 12.73085,65.122256 4.535714,-6.425597"
       id="path1180"
       inkscape:connector-curvature="0" />
    <text
       xml:space="preserve"
       style="font-style:normal;font-variant:normal;font-weight:normal;font-stretch:normal;font-size:2.82222223px;line-height:1.25;font-family:Uroob;-inkscape-font-specification:Uroob;letter-spacing:0px;word-spacing:0px;fill:#848484;fill-opacity:1;stroke:none;stroke-width:0.26458332"
       x="5.7512589"
       y="66.828522"
       id="text928-9-5"><tspan
         sodipodi:role="line"
         id="tspan926-3-0"
         x="5.7512589"
         y="66.828522"
         style="font-style:normal;font-variant:normal;font-weight:normal;font-stretch:normal;font-size:2.82222223px;font-family:Uroob;-inkscape-font-specification:Uroob;fill:#848484;fill-opacity:1;stroke-width:0.26458332">Precondition</tspan></text>
    <path
       style="fill:none;stroke:#626262;stroke-width:0.26458332px;stroke-linecap:butt;stroke-linejoin:miter;stroke-opacity:1"
       d="m 19.857044,55.901716 2.988383,-7.500001"
       id="path966"
       inkscape:connector-curvature="0" />
    <path
       style="fill:none;stroke:#626262;stroke-width:0.26458332px;stroke-linecap:butt;stroke-linejoin:miter;stroke-opacity:1"
       d="m 19.857044,60.901716 2.988383,7.499998"
       id="path968"
       inkscape:connector-curvature="0" />
    <text
       xml:space="preserve"
       style="font-style:normal;font-variant:normal;font-weight:normal;font-stretch:normal;font-size:3.52777767px;line-height:1.25;font-family:Uroob;-inkscape-font-specification:Uroob;letter-spacing:0px;word-spacing:0px;fill:#d40000;fill-opacity:1;stroke:none;stroke-width:0.26458332"
       x="28.213202"
       y="52.985397"
       id="text972"><tspan
         sodipodi:role="line"
         id="tspan970"
         x="28.213202"
         y="52.985397"
         style="fill:#d40000;stroke-width:0.26458332">0.2</tspan></text>
    <text
       xml:space="preserve"
       style="font-style:normal;font-variant:normal;font-weight:normal;font-stretch:normal;font-size:3.52777767px;line-height:1.25;font-family:Uroob;-inkscape-font-specification:Uroob;letter-spacing:0px;word-spacing:0px;fill:#d40000;fill-opacity:1;stroke:none;stroke-width:0.26458332"
       x="28.420992"
       y="57.642609"
       id="text972-9"><tspan
         sodipodi:role="line"
         id="tspan970-1"
         x="28.420992"
         y="57.642609"
         style="fill:#d40000;stroke-width:0.26458332">0.5</tspan></text>
    <text
       xml:space="preserve"
       style="font-style:normal;font-variant:normal;font-weight:normal;font-stretch:normal;font-size:3.52777767px;line-height:1.25;font-family:Uroob;-inkscape-font-specification:Uroob;letter-spacing:0px;word-spacing:0px;fill:#d40000;fill-opacity:1;stroke:none;stroke-width:0.26458332"
       x="28.420994"
       y="62.921188"
       id="text972-2"><tspan
         sodipodi:role="line"
         id="tspan970-7"
         x="28.420994"
         y="62.921188"
         style="fill:#d40000;stroke-width:0.26458332">0.2</tspan></text>
    <text
       xml:space="preserve"
       style="font-style:normal;font-variant:normal;font-weight:normal;font-stretch:normal;font-size:3.52777767px;line-height:1.25;font-family:Uroob;-inkscape-font-specification:Uroob;letter-spacing:0px;word-spacing:0px;fill:#d40000;fill-opacity:1;stroke:none;stroke-width:0.26458332"
       x="28.588037"
       y="67.631805"
       id="text972-0"><tspan
         sodipodi:role="line"
         id="tspan970-9"
         x="28.588037"
         y="67.631805"
         style="fill:#d40000;stroke-width:0.26458332">0.1</tspan></text>
    <text
       xml:space="preserve"
       style="font-style:normal;font-variant:normal;font-weight:normal;font-stretch:normal;font-size:2.82222223px;line-height:1.25;font-family:Uroob;-inkscape-font-specification:Uroob;letter-spacing:0px;word-spacing:0px;fill:#848484;fill-opacity:1;stroke:none;stroke-width:0.26458332"
       x="32.557404"
       y="67.259186"
       id="text928-9-5-3"><tspan
         sodipodi:role="line"
         id="tspan926-3-0-6"
         x="32.557404"
         y="67.259186"
         style="font-style:normal;font-variant:normal;font-weight:normal;font-stretch:normal;font-size:2.82222223px;font-family:Uroob;-inkscape-font-specification:Uroob;fill:#848484;fill-opacity:1;stroke-width:0.26458332">Transition Probabilities</tspan></text>
    <g
       id="g1809"
       transform="translate(2.5295228,0.52916663)">
      <text
         id="text928-9-3"
         y="101.62563"
         x="23.626947"
         style="font-style:normal;font-variant:normal;font-weight:normal;font-stretch:normal;font-size:3.52777767px;line-height:1.25;font-family:Uroob;-inkscape-font-specification:Uroob;letter-spacing:0px;word-spacing:0px;fill:#000000;fill-opacity:1;stroke:none;stroke-width:0.26458332"
         xml:space="preserve"><tspan
           style="font-style:normal;font-variant:normal;font-weight:normal;font-stretch:normal;font-family:Uroob;-inkscape-font-specification:Uroob;stroke-width:0.26458332"
           y="101.62563"
           x="23.626947"
           id="tspan926-3-6"
           sodipodi:role="line">A Policy</tspan></text>
      <path
         inkscape:connector-curvature="0"
         id="path888"
         d="m 20.735027,95.735387 2.039044,2.320345 h 43.53041 l 1.698725,-1.933078"
         style="fill:none;stroke:#9d9d9d;stroke-width:0.30000001;stroke-linecap:round;stroke-linejoin:miter;stroke-miterlimit:4;stroke-dasharray:0.3, 0.9;stroke-dashoffset:0;stroke-opacity:1" />
      <text
         id="text928-9-3-6"
         y="96.380333"
         x="58.221088"
         style="font-style:normal;font-variant:normal;font-weight:normal;font-stretch:normal;font-size:3.52777767px;line-height:1.25;font-family:Uroob;-inkscape-font-specification:Uroob;letter-spacing:0px;word-spacing:0px;fill:#000000;fill-opacity:1;stroke:none;stroke-width:0.26458332"
         xml:space="preserve"><tspan
           style="font-style:normal;font-variant:normal;font-weight:normal;font-stretch:normal;font-family:Uroob;-inkscape-font-specification:Uroob;stroke-width:0.26458332"
           y="96.380333"
           x="58.221088"
           id="tspan926-3-6-1"
           sodipodi:role="line">...</tspan><tspan
           id="tspan969"
           style="font-style:normal;font-variant:normal;font-weight:normal;font-stretch:normal;font-family:Uroob;-inkscape-font-specification:Uroob;stroke-width:0.26458332"
           y="100.79005"
           x="58.221088"
           sodipodi:role="line" /></text>
      <g
         transform="matrix(0.55304402,0,0,0.55304402,38.147477,52.557772)"
         id="g1050-5">
        <g
           id="g1176-0-0"
           transform="matrix(-1,0,0,1,-16.991638,-29.958487)">
          <rect
             y="92.357536"
             x="10.612841"
             height="5"
             width="5"
             id="rect815-0-4-7-2-3"
             style="opacity:1;fill:none;fill-opacity:1;stroke:#626262;stroke-width:0.5;stroke-linecap:round;stroke-linejoin:bevel;stroke-miterlimit:4;stroke-dasharray:none;stroke-dashoffset:0;stroke-opacity:1" />
          <circle
             r="1.6"
             cy="94.857536"
             cx="13.11284"
             id="path840-1-2-2-3-6"
             style="opacity:1;fill:#d22f00;fill-opacity:1;stroke:none;stroke-width:0.58585626;stroke-linecap:round;stroke-linejoin:bevel;stroke-miterlimit:4;stroke-dasharray:none;stroke-dashoffset:0;stroke-opacity:1" />
          <g
             id="g964-7-1"
             transform="translate(0,-0.85881042)">
            <rect
               style="opacity:1;fill:none;fill-opacity:1;stroke:#626262;stroke-width:0.5;stroke-linecap:round;stroke-linejoin:bevel;stroke-miterlimit:4;stroke-dasharray:none;stroke-dashoffset:0;stroke-opacity:1"
               id="rect815-0-6-0-7-5-0"
               width="5"
               height="5"
               x="2.6244578"
               y="85.716347" />
            <circle
               style="opacity:1;fill:#a000d2;fill-opacity:1;stroke:none;stroke-width:0.5;stroke-linecap:round;stroke-linejoin:bevel;stroke-miterlimit:4;stroke-dasharray:none;stroke-dashoffset:0;stroke-opacity:1"
               id="path840-1-3-5-0-9-6"
               cx="5.1244574"
               cy="88.216347"
               r="1.6" />
            <rect
               style="opacity:1;fill:none;fill-opacity:1;stroke:#626262;stroke-width:0.5;stroke-linecap:round;stroke-linejoin:bevel;stroke-miterlimit:4;stroke-dasharray:none;stroke-dashoffset:0;stroke-opacity:1"
               id="rect815-0-6-0-7-3-2-3"
               width="5"
               height="5"
               x="2.6244578"
               y="90.716347" />
            <circle
               style="opacity:1;fill:#d22f00;fill-opacity:1;stroke:none;stroke-width:0.5;stroke-linecap:round;stroke-linejoin:bevel;stroke-miterlimit:4;stroke-dasharray:none;stroke-dashoffset:0;stroke-opacity:1"
               id="path840-1-3-5-0-6-2-2"
               cx="5.1244578"
               cy="93.216347"
               r="1.6" />
            <rect
               style="opacity:1;fill:none;fill-opacity:1;stroke:#626262;stroke-width:0.5;stroke-linecap:round;stroke-linejoin:bevel;stroke-miterlimit:4;stroke-dasharray:none;stroke-dashoffset:0;stroke-opacity:1"
               id="rect815-0-6-0-7-7-8-0"
               width="5"
               height="5"
               x="2.6244578"
               y="95.716347" />
            <circle
               style="opacity:1;fill:#00d25a;fill-opacity:1;stroke:none;stroke-width:0.5;stroke-linecap:round;stroke-linejoin:bevel;stroke-miterlimit:4;stroke-dasharray:none;stroke-dashoffset:0;stroke-opacity:1"
               id="path840-1-3-5-0-5-9-6"
               cx="5.1244578"
               cy="98.216347"
               r="1.6" />
            <rect
               style="opacity:1;fill:none;fill-opacity:1;stroke:#626262;stroke-width:0.5;stroke-linecap:round;stroke-linejoin:bevel;stroke-miterlimit:4;stroke-dasharray:none;stroke-dashoffset:0;stroke-opacity:1"
               id="rect815-0-6-0-7-35-7-1"
               width="5"
               height="5"
               x="2.6244578"
               y="100.71635" />
            <circle
               style="opacity:1;fill:#ffda3b;fill-opacity:1;stroke:none;stroke-width:0.5;stroke-linecap:round;stroke-linejoin:bevel;stroke-miterlimit:4;stroke-dasharray:none;stroke-dashoffset:0;stroke-opacity:1"
               id="path840-1-3-5-0-62-3-5"
               cx="5.1244578"
               cy="103.21635"
               r="1.6" />
          </g>
        </g>
        <path
           style="fill:none;stroke:#626262;stroke-width:0.26458332px;stroke-linecap:butt;stroke-linejoin:miter;stroke-opacity:1"
           d="m -27.604479,62.399049 2.988383,-7.500001"
           id="path966-6-5"
           inkscape:connector-curvature="0" />
        <path
           style="fill:none;stroke:#626262;stroke-width:0.26458332px;stroke-linecap:butt;stroke-linejoin:miter;stroke-opacity:1"
           d="m -27.604479,67.399049 2.988383,7.499998"
           id="path968-1-4"
           inkscape:connector-curvature="0" />
        <text
           xml:space="preserve"
           style="font-style:normal;font-variant:normal;font-weight:normal;font-stretch:normal;font-size:3.52777767px;line-height:1.25;font-family:Uroob;-inkscape-font-specification:Uroob;letter-spacing:0px;word-spacing:0px;fill:#d40000;fill-opacity:1;stroke:none;stroke-width:0.26458332"
           x="-19.248322"
           y="59.482731"
           id="text972-29-7"><tspan
             sodipodi:role="line"
             id="tspan970-3-6"
             x="-19.248322"
             y="59.482731"
             style="fill:#d40000;stroke-width:0.26458332">-</tspan></text>
        <text
           xml:space="preserve"
           style="font-style:normal;font-variant:normal;font-weight:normal;font-stretch:normal;font-size:3.52777767px;line-height:1.25;font-family:Uroob;-inkscape-font-specification:Uroob;letter-spacing:0px;word-spacing:0px;fill:#d40000;fill-opacity:1;stroke:none;stroke-width:0.26458332"
           x="-19.040531"
           y="64.139938"
           id="text972-9-1-5"><tspan
             sodipodi:role="line"
             id="tspan970-1-9-6"
             x="-19.040531"
             y="64.139938"
             style="fill:#d40000;stroke-width:0.26458332">-</tspan></text>
        <text
           xml:space="preserve"
           style="font-style:normal;font-variant:normal;font-weight:normal;font-stretch:normal;font-size:3.52777767px;line-height:1.25;font-family:Uroob;-inkscape-font-specification:Uroob;letter-spacing:0px;word-spacing:0px;fill:#d40000;fill-opacity:1;stroke:none;stroke-width:0.26458332"
           x="-19.040529"
           y="69.418518"
           id="text972-2-4-9"><tspan
             sodipodi:role="line"
             id="tspan970-7-7-3"
             x="-19.040529"
             y="69.418518"
             style="fill:#d40000;stroke-width:0.26458332">-</tspan></text>
        <text
           xml:space="preserve"
           style="font-style:normal;font-variant:normal;font-weight:normal;font-stretch:normal;font-size:3.52777767px;line-height:1.25;font-family:Uroob;-inkscape-font-specification:Uroob;letter-spacing:0px;word-spacing:0px;fill:#d40000;fill-opacity:1;stroke:none;stroke-width:0.26458332"
           x="-18.873486"
           y="74.129143"
           id="text972-0-8-7"><tspan
             sodipodi:role="line"
             id="tspan970-9-4-4"
             x="-18.873486"
             y="74.129143"
             style="fill:#d40000;stroke-width:0.26458332">-</tspan></text>
      </g>
      <g
         transform="matrix(0.55304402,0,0,0.55304402,50.077609,47.55223)"
         id="g1050-7">
        <g
           id="g1176-0-4"
           transform="matrix(-1,0,0,1,-16.991638,-29.958487)">
          <rect
             y="92.357536"
             x="10.612841"
             height="5"
             width="5"
             id="rect815-0-4-7-2-1"
             style="opacity:1;fill:none;fill-opacity:1;stroke:#626262;stroke-width:0.5;stroke-linecap:round;stroke-linejoin:bevel;stroke-miterlimit:4;stroke-dasharray:none;stroke-dashoffset:0;stroke-opacity:1" />
          <circle
             r="1.6"
             cy="94.857536"
             cx="13.11284"
             id="path840-1-2-2-3-8"
             style="opacity:1;fill:#ffda3b;fill-opacity:1;stroke:none;stroke-width:0.58585626;stroke-linecap:round;stroke-linejoin:bevel;stroke-miterlimit:4;stroke-dasharray:none;stroke-dashoffset:0;stroke-opacity:1" />
          <g
             id="g964-7-5"
             transform="translate(0,-0.85881042)">
            <rect
               style="opacity:1;fill:none;fill-opacity:1;stroke:#626262;stroke-width:0.5;stroke-linecap:round;stroke-linejoin:bevel;stroke-miterlimit:4;stroke-dasharray:none;stroke-dashoffset:0;stroke-opacity:1"
               id="rect815-0-6-0-7-5-9"
               width="5"
               height="5"
               x="2.6244578"
               y="85.716347" />
            <circle
               style="opacity:1;fill:#a000d2;fill-opacity:1;stroke:none;stroke-width:0.5;stroke-linecap:round;stroke-linejoin:bevel;stroke-miterlimit:4;stroke-dasharray:none;stroke-dashoffset:0;stroke-opacity:1"
               id="path840-1-3-5-0-9-75"
               cx="5.1244574"
               cy="88.216347"
               r="1.6" />
            <rect
               style="opacity:1;fill:none;fill-opacity:1;stroke:#626262;stroke-width:0.5;stroke-linecap:round;stroke-linejoin:bevel;stroke-miterlimit:4;stroke-dasharray:none;stroke-dashoffset:0;stroke-opacity:1"
               id="rect815-0-6-0-7-3-2-38"
               width="5"
               height="5"
               x="2.6244578"
               y="90.716347" />
            <circle
               style="opacity:1;fill:#003cd2;fill-opacity:1;stroke:none;stroke-width:0.5;stroke-linecap:round;stroke-linejoin:bevel;stroke-miterlimit:4;stroke-dasharray:none;stroke-dashoffset:0;stroke-opacity:1"
               id="path840-1-3-5-0-6-2-8"
               cx="5.1244578"
               cy="93.216347"
               r="1.6" />
            <rect
               style="opacity:1;fill:none;fill-opacity:1;stroke:#626262;stroke-width:0.5;stroke-linecap:round;stroke-linejoin:bevel;stroke-miterlimit:4;stroke-dasharray:none;stroke-dashoffset:0;stroke-opacity:1"
               id="rect815-0-6-0-7-7-8-3"
               width="5"
               height="5"
               x="2.6244578"
               y="95.716347" />
            <circle
               style="opacity:1;fill:#00d25a;fill-opacity:1;stroke:none;stroke-width:0.5;stroke-linecap:round;stroke-linejoin:bevel;stroke-miterlimit:4;stroke-dasharray:none;stroke-dashoffset:0;stroke-opacity:1"
               id="path840-1-3-5-0-5-9-1"
               cx="5.1244578"
               cy="98.216347"
               r="1.6" />
            <rect
               style="opacity:1;fill:none;fill-opacity:1;stroke:#626262;stroke-width:0.5;stroke-linecap:round;stroke-linejoin:bevel;stroke-miterlimit:4;stroke-dasharray:none;stroke-dashoffset:0;stroke-opacity:1"
               id="rect815-0-6-0-7-35-7-89"
               width="5"
               height="5"
               x="2.6244578"
               y="100.71635" />
            <circle
               style="opacity:1;fill:#ffda3b;fill-opacity:1;stroke:none;stroke-width:0.5;stroke-linecap:round;stroke-linejoin:bevel;stroke-miterlimit:4;stroke-dasharray:none;stroke-dashoffset:0;stroke-opacity:1"
               id="path840-1-3-5-0-62-3-64"
               cx="5.1244578"
               cy="103.21635"
               r="1.6" />
          </g>
        </g>
        <path
           style="fill:none;stroke:#626262;stroke-width:0.26458332px;stroke-linecap:butt;stroke-linejoin:miter;stroke-opacity:1"
           d="m -27.604479,62.399049 2.988383,-7.500001"
           id="path966-6-33"
           inkscape:connector-curvature="0" />
        <path
           style="fill:none;stroke:#626262;stroke-width:0.26458332px;stroke-linecap:butt;stroke-linejoin:miter;stroke-opacity:1"
           d="m -27.604479,67.399049 2.988383,7.499998"
           id="path968-1-3"
           inkscape:connector-curvature="0" />
        <text
           xml:space="preserve"
           style="font-style:normal;font-variant:normal;font-weight:normal;font-stretch:normal;font-size:3.52777767px;line-height:1.25;font-family:Uroob;-inkscape-font-specification:Uroob;letter-spacing:0px;word-spacing:0px;fill:#d40000;fill-opacity:1;stroke:none;stroke-width:0.26458332"
           x="-19.248322"
           y="59.482731"
           id="text972-29-8"><tspan
             sodipodi:role="line"
             id="tspan970-3-60"
             x="-19.248322"
             y="59.482731"
             style="fill:#d40000;stroke-width:0.26458332">-</tspan></text>
        <text
           xml:space="preserve"
           style="font-style:normal;font-variant:normal;font-weight:normal;font-stretch:normal;font-size:3.52777767px;line-height:1.25;font-family:Uroob;-inkscape-font-specification:Uroob;letter-spacing:0px;word-spacing:0px;fill:#d40000;fill-opacity:1;stroke:none;stroke-width:0.26458332"
           x="-19.040531"
           y="64.139938"
           id="text972-9-1-4"><tspan
             sodipodi:role="line"
             id="tspan970-1-9-8"
             x="-19.040531"
             y="64.139938"
             style="fill:#d40000;stroke-width:0.26458332">-</tspan></text>
        <text
           xml:space="preserve"
           style="font-style:normal;font-variant:normal;font-weight:normal;font-stretch:normal;font-size:3.52777767px;line-height:1.25;font-family:Uroob;-inkscape-font-specification:Uroob;letter-spacing:0px;word-spacing:0px;fill:#d40000;fill-opacity:1;stroke:none;stroke-width:0.26458332"
           x="-19.040529"
           y="69.418518"
           id="text972-2-4-8"><tspan
             sodipodi:role="line"
             id="tspan970-7-7-89"
             x="-19.040529"
             y="69.418518"
             style="fill:#d40000;stroke-width:0.26458332">-</tspan></text>
        <text
           xml:space="preserve"
           style="font-style:normal;font-variant:normal;font-weight:normal;font-stretch:normal;font-size:3.52777767px;line-height:1.25;font-family:Uroob;-inkscape-font-specification:Uroob;letter-spacing:0px;word-spacing:0px;fill:#d40000;fill-opacity:1;stroke:none;stroke-width:0.26458332"
           x="-18.873486"
           y="74.129143"
           id="text972-0-8-77"><tspan
             sodipodi:role="line"
             id="tspan970-9-4-6"
             x="-18.873486"
             y="74.129143"
             style="fill:#d40000;stroke-width:0.26458332">-</tspan></text>
      </g>
      <g
         transform="matrix(0.55304402,0,0,0.55304402,62.172847,57.190622)"
         id="g1050-52">
        <g
           id="g1176-0-5"
           transform="matrix(-1,0,0,1,-16.991638,-29.958487)">
          <rect
             y="92.357536"
             x="10.612841"
             height="5"
             width="5"
             id="rect815-0-4-7-2-4"
             style="opacity:1;fill:none;fill-opacity:1;stroke:#626262;stroke-width:0.5;stroke-linecap:round;stroke-linejoin:bevel;stroke-miterlimit:4;stroke-dasharray:none;stroke-dashoffset:0;stroke-opacity:1" />
          <circle
             r="1.6"
             cy="94.857536"
             cx="13.11284"
             id="path840-1-2-2-3-7"
             style="opacity:1;fill:#a000d2;fill-opacity:1;stroke:none;stroke-width:0.58585626;stroke-linecap:round;stroke-linejoin:bevel;stroke-miterlimit:4;stroke-dasharray:none;stroke-dashoffset:0;stroke-opacity:1" />
          <g
             id="g964-7-4"
             transform="translate(0,-0.85881042)">
            <rect
               style="opacity:1;fill:none;fill-opacity:1;stroke:#626262;stroke-width:0.5;stroke-linecap:round;stroke-linejoin:bevel;stroke-miterlimit:4;stroke-dasharray:none;stroke-dashoffset:0;stroke-opacity:1"
               id="rect815-0-6-0-7-5-4"
               width="5"
               height="5"
               x="2.6244578"
               y="85.716347" />
            <circle
               style="opacity:1;fill:#a000d2;fill-opacity:1;stroke:none;stroke-width:0.5;stroke-linecap:round;stroke-linejoin:bevel;stroke-miterlimit:4;stroke-dasharray:none;stroke-dashoffset:0;stroke-opacity:1"
               id="path840-1-3-5-0-9-3"
               cx="5.1244574"
               cy="88.216347"
               r="1.6" />
            <rect
               style="opacity:1;fill:none;fill-opacity:1;stroke:#626262;stroke-width:0.5;stroke-linecap:round;stroke-linejoin:bevel;stroke-miterlimit:4;stroke-dasharray:none;stroke-dashoffset:0;stroke-opacity:1"
               id="rect815-0-6-0-7-3-2-0"
               width="5"
               height="5"
               x="2.6244578"
               y="90.716347" />
            <circle
               style="opacity:1;fill:#d22f00;fill-opacity:1;stroke:none;stroke-width:0.5;stroke-linecap:round;stroke-linejoin:bevel;stroke-miterlimit:4;stroke-dasharray:none;stroke-dashoffset:0;stroke-opacity:1"
               id="path840-1-3-5-0-6-2-7"
               cx="5.1244578"
               cy="93.216347"
               r="1.6" />
            <rect
               style="opacity:1;fill:none;fill-opacity:1;stroke:#626262;stroke-width:0.5;stroke-linecap:round;stroke-linejoin:bevel;stroke-miterlimit:4;stroke-dasharray:none;stroke-dashoffset:0;stroke-opacity:1"
               id="rect815-0-6-0-7-7-8-8"
               width="5"
               height="5"
               x="2.6244578"
               y="95.716347" />
            <circle
               style="opacity:1;fill:#00d25a;fill-opacity:1;stroke:none;stroke-width:0.5;stroke-linecap:round;stroke-linejoin:bevel;stroke-miterlimit:4;stroke-dasharray:none;stroke-dashoffset:0;stroke-opacity:1"
               id="path840-1-3-5-0-5-9-68"
               cx="5.1244578"
               cy="98.216347"
               r="1.6" />
            <rect
               style="opacity:1;fill:none;fill-opacity:1;stroke:#626262;stroke-width:0.5;stroke-linecap:round;stroke-linejoin:bevel;stroke-miterlimit:4;stroke-dasharray:none;stroke-dashoffset:0;stroke-opacity:1"
               id="rect815-0-6-0-7-35-7-8"
               width="5"
               height="5"
               x="2.6244578"
               y="100.71635" />
            <circle
               style="opacity:1;fill:#ffda3b;fill-opacity:1;stroke:none;stroke-width:0.5;stroke-linecap:round;stroke-linejoin:bevel;stroke-miterlimit:4;stroke-dasharray:none;stroke-dashoffset:0;stroke-opacity:1"
               id="path840-1-3-5-0-62-3-4"
               cx="5.1244578"
               cy="103.21635"
               r="1.6" />
          </g>
        </g>
        <path
           style="fill:none;stroke:#626262;stroke-width:0.26458332px;stroke-linecap:butt;stroke-linejoin:miter;stroke-opacity:1"
           d="m -27.604479,62.399049 2.988383,-7.500001"
           id="path966-6-3"
           inkscape:connector-curvature="0" />
        <path
           style="fill:none;stroke:#626262;stroke-width:0.26458332px;stroke-linecap:butt;stroke-linejoin:miter;stroke-opacity:1"
           d="m -27.604479,67.399049 2.988383,7.499998"
           id="path968-1-1"
           inkscape:connector-curvature="0" />
        <text
           xml:space="preserve"
           style="font-style:normal;font-variant:normal;font-weight:normal;font-stretch:normal;font-size:3.52777767px;line-height:1.25;font-family:Uroob;-inkscape-font-specification:Uroob;letter-spacing:0px;word-spacing:0px;fill:#d40000;fill-opacity:1;stroke:none;stroke-width:0.26458332"
           x="-19.248322"
           y="59.482731"
           id="text972-29-4"><tspan
             sodipodi:role="line"
             id="tspan970-3-9"
             x="-19.248322"
             y="59.482731"
             style="fill:#d40000;stroke-width:0.26458332">-</tspan></text>
        <text
           xml:space="preserve"
           style="font-style:normal;font-variant:normal;font-weight:normal;font-stretch:normal;font-size:3.52777767px;line-height:1.25;font-family:Uroob;-inkscape-font-specification:Uroob;letter-spacing:0px;word-spacing:0px;fill:#d40000;fill-opacity:1;stroke:none;stroke-width:0.26458332"
           x="-19.040531"
           y="64.139938"
           id="text972-9-1-2"><tspan
             sodipodi:role="line"
             id="tspan970-1-9-0"
             x="-19.040531"
             y="64.139938"
             style="fill:#d40000;stroke-width:0.26458332">-</tspan></text>
        <text
           xml:space="preserve"
           style="font-style:normal;font-variant:normal;font-weight:normal;font-stretch:normal;font-size:3.52777767px;line-height:1.25;font-family:Uroob;-inkscape-font-specification:Uroob;letter-spacing:0px;word-spacing:0px;fill:#d40000;fill-opacity:1;stroke:none;stroke-width:0.26458332"
           x="-19.040529"
           y="69.418518"
           id="text972-2-4-6"><tspan
             sodipodi:role="line"
             id="tspan970-7-7-8"
             x="-19.040529"
             y="69.418518"
             style="fill:#d40000;stroke-width:0.26458332">-</tspan></text>
        <text
           xml:space="preserve"
           style="font-style:normal;font-variant:normal;font-weight:normal;font-stretch:normal;font-size:3.52777767px;line-height:1.25;font-family:Uroob;-inkscape-font-specification:Uroob;letter-spacing:0px;word-spacing:0px;fill:#d40000;fill-opacity:1;stroke:none;stroke-width:0.26458332"
           x="-18.873486"
           y="74.129143"
           id="text972-0-8-9"><tspan
             sodipodi:role="line"
             id="tspan970-9-4-2"
             x="-18.873486"
             y="74.129143"
             style="fill:#d40000;stroke-width:0.26458332">-</tspan></text>
      </g>
      <g
         transform="matrix(0.55304402,0,0,0.55304402,68.881923,43.677972)"
         id="g1050-6">
        <g
           id="g1176-0-6"
           transform="matrix(-1,0,0,1,-16.991638,-29.958487)">
          <rect
             y="92.357536"
             x="10.612841"
             height="5"
             width="5"
             id="rect815-0-4-7-2-49"
             style="opacity:1;fill:none;fill-opacity:1;stroke:#626262;stroke-width:0.5;stroke-linecap:round;stroke-linejoin:bevel;stroke-miterlimit:4;stroke-dasharray:none;stroke-dashoffset:0;stroke-opacity:1" />
          <circle
             r="1.6"
             cy="94.857536"
             cx="13.11284"
             id="path840-1-2-2-3-5"
             style="opacity:1;fill:#00d25a;fill-opacity:1;stroke:none;stroke-width:0.58585626;stroke-linecap:round;stroke-linejoin:bevel;stroke-miterlimit:4;stroke-dasharray:none;stroke-dashoffset:0;stroke-opacity:1" />
          <g
             id="g964-7-0"
             transform="translate(0,-0.85881042)">
            <rect
               style="opacity:1;fill:none;fill-opacity:1;stroke:#626262;stroke-width:0.5;stroke-linecap:round;stroke-linejoin:bevel;stroke-miterlimit:4;stroke-dasharray:none;stroke-dashoffset:0;stroke-opacity:1"
               id="rect815-0-6-0-7-5-48"
               width="5"
               height="5"
               x="2.6244578"
               y="85.716347" />
            <circle
               style="opacity:1;fill:#a000d2;fill-opacity:1;stroke:none;stroke-width:0.5;stroke-linecap:round;stroke-linejoin:bevel;stroke-miterlimit:4;stroke-dasharray:none;stroke-dashoffset:0;stroke-opacity:1"
               id="path840-1-3-5-0-9-7"
               cx="5.1244574"
               cy="88.216347"
               r="1.6" />
            <rect
               style="opacity:1;fill:none;fill-opacity:1;stroke:#626262;stroke-width:0.5;stroke-linecap:round;stroke-linejoin:bevel;stroke-miterlimit:4;stroke-dasharray:none;stroke-dashoffset:0;stroke-opacity:1"
               id="rect815-0-6-0-7-3-2-1"
               width="5"
               height="5"
               x="2.6244578"
               y="90.716347" />
            <circle
               style="opacity:1;fill:#d22f00;fill-opacity:1;stroke:none;stroke-width:0.5;stroke-linecap:round;stroke-linejoin:bevel;stroke-miterlimit:4;stroke-dasharray:none;stroke-dashoffset:0;stroke-opacity:1"
               id="path840-1-3-5-0-6-2-72"
               cx="5.1244578"
               cy="93.216347"
               r="1.6" />
            <rect
               style="opacity:1;fill:none;fill-opacity:1;stroke:#626262;stroke-width:0.5;stroke-linecap:round;stroke-linejoin:bevel;stroke-miterlimit:4;stroke-dasharray:none;stroke-dashoffset:0;stroke-opacity:1"
               id="rect815-0-6-0-7-7-8-7"
               width="5"
               height="5"
               x="2.6244578"
               y="95.716347" />
            <circle
               style="opacity:1;fill:#003cd2;fill-opacity:1;stroke:none;stroke-width:0.5;stroke-linecap:round;stroke-linejoin:bevel;stroke-miterlimit:4;stroke-dasharray:none;stroke-dashoffset:0;stroke-opacity:1"
               id="path840-1-3-5-0-5-9-2"
               cx="5.1244578"
               cy="98.216347"
               r="1.6" />
            <rect
               style="opacity:1;fill:none;fill-opacity:1;stroke:#626262;stroke-width:0.5;stroke-linecap:round;stroke-linejoin:bevel;stroke-miterlimit:4;stroke-dasharray:none;stroke-dashoffset:0;stroke-opacity:1"
               id="rect815-0-6-0-7-35-7-2"
               width="5"
               height="5"
               x="2.6244578"
               y="100.71635" />
            <circle
               style="opacity:1;fill:#ffda3b;fill-opacity:1;stroke:none;stroke-width:0.5;stroke-linecap:round;stroke-linejoin:bevel;stroke-miterlimit:4;stroke-dasharray:none;stroke-dashoffset:0;stroke-opacity:1"
               id="path840-1-3-5-0-62-3-6"
               cx="5.1244578"
               cy="103.21635"
               r="1.6" />
          </g>
        </g>
        <path
           style="fill:none;stroke:#626262;stroke-width:0.26458332px;stroke-linecap:butt;stroke-linejoin:miter;stroke-opacity:1"
           d="m -27.604479,62.399049 2.988383,-7.500001"
           id="path966-6-1"
           inkscape:connector-curvature="0" />
        <path
           style="fill:none;stroke:#626262;stroke-width:0.26458332px;stroke-linecap:butt;stroke-linejoin:miter;stroke-opacity:1"
           d="m -27.604479,67.399049 2.988383,7.499998"
           id="path968-1-0"
           inkscape:connector-curvature="0" />
        <text
           xml:space="preserve"
           style="font-style:normal;font-variant:normal;font-weight:normal;font-stretch:normal;font-size:3.52777767px;line-height:1.25;font-family:Uroob;-inkscape-font-specification:Uroob;letter-spacing:0px;word-spacing:0px;fill:#d40000;fill-opacity:1;stroke:none;stroke-width:0.26458332"
           x="-19.248322"
           y="59.482731"
           id="text972-29-6"><tspan
             sodipodi:role="line"
             id="tspan970-3-1"
             x="-19.248322"
             y="59.482731"
             style="fill:#d40000;stroke-width:0.26458332">-</tspan></text>
        <text
           xml:space="preserve"
           style="font-style:normal;font-variant:normal;font-weight:normal;font-stretch:normal;font-size:3.52777767px;line-height:1.25;font-family:Uroob;-inkscape-font-specification:Uroob;letter-spacing:0px;word-spacing:0px;fill:#d40000;fill-opacity:1;stroke:none;stroke-width:0.26458332"
           x="-19.040531"
           y="64.139938"
           id="text972-9-1-59"><tspan
             sodipodi:role="line"
             id="tspan970-1-9-4"
             x="-19.040531"
             y="64.139938"
             style="fill:#d40000;stroke-width:0.26458332">-</tspan></text>
        <text
           xml:space="preserve"
           style="font-style:normal;font-variant:normal;font-weight:normal;font-stretch:normal;font-size:3.52777767px;line-height:1.25;font-family:Uroob;-inkscape-font-specification:Uroob;letter-spacing:0px;word-spacing:0px;fill:#d40000;fill-opacity:1;stroke:none;stroke-width:0.26458332"
           x="-19.040529"
           y="69.418518"
           id="text972-2-4-90"><tspan
             sodipodi:role="line"
             id="tspan970-7-7-9"
             x="-19.040529"
             y="69.418518"
             style="fill:#d40000;stroke-width:0.26458332">-</tspan></text>
        <text
           xml:space="preserve"
           style="font-style:normal;font-variant:normal;font-weight:normal;font-stretch:normal;font-size:3.52777767px;line-height:1.25;font-family:Uroob;-inkscape-font-specification:Uroob;letter-spacing:0px;word-spacing:0px;fill:#d40000;fill-opacity:1;stroke:none;stroke-width:0.26458332"
           x="-18.873486"
           y="74.129143"
           id="text972-0-8-1"><tspan
             sodipodi:role="line"
             id="tspan970-9-4-7"
             x="-18.873486"
             y="74.129143"
             style="fill:#d40000;stroke-width:0.26458332">-</tspan></text>
      </g>
    </g>
    <path
       style="fill:none;stroke:#d61b1b;stroke-width:0.60000002;stroke-linecap:butt;stroke-linejoin:miter;stroke-miterlimit:4;stroke-dasharray:none;stroke-opacity:1;marker-end:url(#Arrow2Mend)"
       d="m 18.345109,88.963672 c 0,0 9.011831,5.890007 12.189258,3.932568 3.177428,-1.957438 3.756632,-11.688032 7.490416,-8.922812 3.733784,2.76522 8.418671,-1.931936 13.670151,-3.609148 5.25148,-1.677212 5.858489,0.725148 7.402269,4.067953 0.955022,2.067946 -2.933876,2.732458 -7.793912,2.674637 -2.408341,-0.02865 -8.663293,5.110709 -11.077321,4.810183 -3.842122,-0.47831 -3.68688,-4.904358 -4.249232,-7.164295 -0.356771,-1.433764 -1.051163,-4.290318 4.826951,-4.838394 5.901313,-0.550239 4.437437,2.845872 4.727595,5.864226 0.307686,3.200684 -1.714054,7.9971 2.558385,8.101955 2.526446,0.062 11.362148,-3.378395 11.362148,-3.378395"
       id="path6878"
       inkscape:connector-curvature="0"
       sodipodi:nodetypes="czzzsssssssc" />
  </g>
</svg>
